{
  "type": "service_account",
  "project_id": "hairrepublic-31435",
  "private_key_id": "09ce10c38c4c4d95764326020a48e215fdb14009",
  "private_key": "-----BEGIN PRIVATE KEY-----\nMIIEvQIBADANBgkqhkiG9w0BAQEFAASCBKcwggSjAgEAAoIBAQCgl1Y5jtjCVrUM\nw0yGCDCjsuui+jp4aVQtwMjW66l+Y2HyYurRTS5QmEX/fuNgKZqxKPNF5zplUocY\nKL7e9UDKEHTl1NYGTY7uuPKvcOLYJnJOcizxE7kvywP7SeThLrXen6wOsc3y7Hio\nJCsdx9iPtPFY0c5NZmjM+CnQS/M4jRrvbt6Bpo1yo6QFzkBbjf7i+c6ga5x4ANsv\n0jPZWchonXfIjGUEvEY53cj+sl3A7Hy3oglRNo/eHJ4IBYsOTaxe7TQ7YpEV3O9E\nhvPeTc7ztSVEcvYzMQvvOozGkgAp05zuXt3t0CJLGb+pse6pNolplQS9VdXdzvFZ\nyFTuIcxfAgMBAAECggEAHqfVC2bD5RFFPXr4nCtrEYzBo5pt1/ePXK6NCE3zTI+v\nLmSIm8zGdxciYZv4zq4SfBgrnGAAC0B+TnPUv94EcK5Eim0fMBPVIagHl8sOWqG4\nN1ZfUuPneYKhL3KTMRNIH4fOgf2aKXHPtJU279fq9L/fRIvEfIz8m4gR/1PISbaE\nkCu65pOgq5x0GP2B3Tqo1t61rKcUwfrAFTQHuCF9huFeEgRpLSPRNQQOpvPTQKi7\nK8qgs3lvUNL8rBu7/PO+7a7QGv55tOaht/D0BWUr1896a4Mp0tNRsFechkSTJDdu\n2LazF0ROrvmcR5IkiCUaO1lohVJRE4GNaw0qC7qPUQKBgQDMjcm7rebPo3RuvleB\nWS8bmwekIhjgqvEZVGPuyy36V5vXg/EzjMLMgtMNj1sHA9VCboWjE7AacDhq0C9S\nr5pMl1XPIzQFAirZ3YulcCPr+ELDQu6L6K0mo467ktHFwdBdjr1ONnLXo6F282js\n3f9xqPKbvB8lSPmTqdxYnZudTwKBgQDI+wIBSuSkHQW8aA8YQMLjX11ZauDW5H3G\nN3hcCCP5hZhq4gRL59MKCEtZrHQtTUBm/xIDwDAPDGu8Togu7CpgyKaIDyK3LzNy\ncfd4abLj+ZvbMnZsB9guhLm+r48hJjPoJdfabTrQE39MLUHvXHUeOt28CcKbOMoC\nulXwpya78QKBgDLvT39jUyj6+6Aj12hHC9rk5KczMlynVDfJcsTgZQeETzMAEMyU\nTWFdZi5nNvRtOOo82Rv9aAl9Th8SzeXaAiL2QBC/JFHm80KizwYYAWndvMogXYQL\nISqQ6Za9fWyv0TGqvGrAViJqBWe4PrVUpinoNtkeo+bF4Ber4UlTnY8zAoGAQIBW\nV2Xa1VS/J4VZ+tWl9mT/x5fGixEP0JKy3Q57xTP8A6l/6YCAOYMJ88CmFHfriGKq\nPGvswJei5+9oQ27l9uPOlnINGS9b2on6+zkpAYN1YrbiTK+D0QIlvq4HSINDO2kR\nynct3eO0AhWwSIqqx8XqrdOQElL6ej+lHzP1+XECgYEAhzpF9Pg0UZTOgVfnkflQ\n8rs9YY+eNvxoeKA2mYWNfwenfMQZkCv5+vitijLrOTAhwqy5Hd38sx4ZbvUba+ff\n83H6bKvoyWZJ4eztp7wrYxlnZQfN9/Lvwp+XrfVVku6GRfGGWUDny88i0NZGhOfH\nHhlyyds9cOzDOuHDw+5xSN0=\n-----END PRIVATE KEY-----\n",
  "client_email": "firebase-adminsdk-6jl30@hairrepublic-31435.iam.gserviceaccount.com",
  "client_id": "106175086866412198258",
  "auth_uri": "https://accounts.google.com/o/oauth2/auth",
  "token_uri": "https://oauth2.googleapis.com/token",
  "auth_provider_x509_cert_url": "https://www.googleapis.com/oauth2/v1/certs",
  "client_x509_cert_url": "https://www.googleapis.com/robot/v1/metadata/x509/firebase-adminsdk-6jl30%40hairrepublic-31435.iam.gserviceaccount.com"
}
